\relax 
\providecommand*\new@tpo@label[2]{}
\catcode `"\active 
\babel@aux{ngerman}{}
\@writefile{toc}{\contentsline {section}{\numberline {1}Le livre}{2}}
\@writefile{toc}{\contentsline {section}{\numberline {2}Comment choisir ses lectures}{2}}
\@writefile{toc}{\contentsline {subsection}{\numberline {2.1}Influences personnelles}{2}}
\@writefile{toc}{\contentsline {subsection}{\numberline {2.2}Influences de l'auteur}{3}}
\@writefile{toc}{\contentsline {subsection}{\numberline {2.3}Hazard}{3}}
\@writefile{toc}{\contentsline {subsection}{\numberline {2.4}Effacer des livres de sa liste de lecture}{3}}
\@writefile{toc}{\contentsline {section}{\numberline {3}Le flow de la lecture}{3}}
\@writefile{toc}{\contentsline {subsection}{\numberline {3.1}Attitudes}{3}}
\@writefile{toc}{\contentsline {subsection}{\numberline {3.2}Confiance de lecture}{4}}
\@writefile{toc}{\contentsline {subsection}{\numberline {3.3}Lecture rapide}{4}}
\@writefile{toc}{\contentsline {section}{\numberline {4}Techniques de m\IeC {\'e}morisation}{4}}
\@writefile{toc}{\contentsline {subsection}{\numberline {4.1}R\IeC {\'e}petition espac\IeC {\'e}}{4}}
\@writefile{toc}{\contentsline {subsection}{\numberline {4.2}Sleep}{5}}
\@writefile{toc}{\contentsline {subsubsection}{\numberline {4.2.1}How sleep works}{5}}
\@writefile{toc}{\contentsline {subsubsection}{\numberline {4.2.2}Benefits of sleep}{5}}
\@writefile{toc}{\contentsline {subsubsection}{\numberline {4.2.3}How to optimize sleep}{5}}
\@writefile{toc}{\contentsline {subsection}{\numberline {4.3}Palais de m\IeC {\'e}moire}{6}}
