\relax 
\providecommand\hyper@newdestlabel[2]{}
\providecommand*\new@tpo@label[2]{}
\catcode `"\active 
\providecommand\HyperFirstAtBeginDocument{\AtBeginDocument}
\HyperFirstAtBeginDocument{\ifx\hyper@anchor\@undefined
\global\let\oldcontentsline\contentsline
\gdef\contentsline#1#2#3#4{\oldcontentsline{#1}{#2}{#3}}
\global\let\oldnewlabel\newlabel
\gdef\newlabel#1#2{\newlabelxx{#1}#2}
\gdef\newlabelxx#1#2#3#4#5#6{\oldnewlabel{#1}{{#2}{#3}}}
\AtEndDocument{\ifx\hyper@anchor\@undefined
\let\contentsline\oldcontentsline
\let\newlabel\oldnewlabel
\fi}
\fi}
\global\let\hyper@last\relax 
\gdef\HyperFirstAtBeginDocument#1{#1}
\providecommand\HyField@AuxAddToFields[1]{}
\providecommand\HyField@AuxAddToCoFields[2]{}
\babel@aux{ngerman}{}
\@writefile{toc}{\contentsline {section}{\numberline {1}Ideas/Goals of the book:}{2}{section.1}}
\@writefile{toc}{\contentsline {section}{\numberline {2}The Wisdom of Tradition}{2}{section.2}}
\@writefile{toc}{\contentsline {subsection}{\numberline {2.1}Reclaiming your health:}{2}{subsection.2.1}}
\@writefile{toc}{\contentsline {subsection}{\numberline {2.2}The intelligent gene:}{2}{subsection.2.2}}
\@writefile{toc}{\contentsline {subsection}{\numberline {2.3}The greatest gift:}{2}{subsection.2.3}}
\@writefile{toc}{\contentsline {subsection}{\numberline {2.4}Dynamic Symmetry:}{3}{subsection.2.4}}
\@writefile{toc}{\contentsline {subsection}{\numberline {2.5}Letting Your Body Create a Perfect Baby:}{3}{subsection.2.5}}
\@writefile{toc}{\contentsline {section}{\numberline {3}The Dangers of the Modern Diet}{4}{section.3}}
\@writefile{toc}{\contentsline {subsection}{\numberline {3.1}The Great Nutrition Migration}{4}{subsection.3.1}}
\@writefile{toc}{\contentsline {subsection}{\numberline {3.2}Good Fats and Bad}{4}{subsection.3.2}}
\newlabel{GFBF}{{3.2}{4}{Good Fats and Bad}{subsection.3.2}{}}
\citation{anti_immune}
\bibstyle{agsm}
\bibdata{deep-bib}
\bibcite{anti_immune}{{1}{1997}{{Lin et~al.}}{{Lin, Wu, Chiang, Liu \&\ Huang}}}
\@writefile{toc}{\contentsline {subsection}{\numberline {3.3}Brain Killer}{5}{subsection.3.3}}
