This is BibTeX, Version 0.99d (TeX Live 2017/Arch Linux)
Capacity: max_strings=100000, hash_size=100000, hash_prime=85009
The top-level auxiliary file: Deep Nutrition.aux
The style file: agsm.bst
Database file #1: deep-bib.bib
You've used 1 entry,
            2909 wiz_defined-function locations,
            646 strings with 5030 characters,
and the built_in function-call counts, 6605 in all, are:
= -- 1068
> -- 112
< -- 0
+ -- 533
- -- 35
* -- 601
:= -- 1300
add.period$ -- 1
call.type$ -- 1
change.case$ -- 14
chr.to.int$ -- 1
cite$ -- 1
duplicate$ -- 16
empty$ -- 39
format.name$ -- 38
if$ -- 1184
int.to.chr$ -- 5
int.to.str$ -- 0
missing$ -- 1
newline$ -- 7
num.names$ -- 11
pop$ -- 2
preamble$ -- 1
purify$ -- 15
quote$ -- 0
skip$ -- 14
stack$ -- 0
substring$ -- 1545
swap$ -- 3
text.length$ -- 14
text.prefix$ -- 0
top$ -- 0
type$ -- 4
warning$ -- 0
while$ -- 22
width$ -- 0
write$ -- 17
