\relax 
\providecommand*\new@tpo@label[2]{}
\catcode `"\active 
\babel@aux{ngerman}{}
\@writefile{toc}{\contentsline {section}{\numberline {1}La semaine parfaite}{2}}
\@writefile{toc}{\contentsline {section}{\numberline {2}Productivit\IeC {\'e} et conscience}{2}}
\@writefile{toc}{\contentsline {subsection}{\numberline {2.1}L'alternative nulle}{2}}
\@writefile{toc}{\contentsline {subsection}{\numberline {2.2}R\IeC {\`e}gle des 10 minutes}{2}}
\@writefile{toc}{\contentsline {section}{\numberline {3}R\IeC {\'e}generation productive et rythme}{2}}
